{
    "fpga_resources": {
        "BRAM": 10000,
        "CLB": 10000,
        "DSP": 10000
    },
    "num_software_components": 1,
    "reconfiguration_speed": 30,
    "task_list": [
        {
            "hardware_implementations": [
                {
                    "bram_requirement": 205,
                    "clb_requirement": 205,
                    "dsp_requirement": 205,
                    "execution_time": 927,
                    "name": "hw_impl_t0_0"
                },
                {
                    "bram_requirement": 8493,
                    "clb_requirement": 8493,
                    "dsp_requirement": 8493,
                    "execution_time": 665,
                    "name": "hw_impl_t0_1"
                },
                {
                    "bram_requirement": 9370,
                    "clb_requirement": 9370,
                    "dsp_requirement": 9370,
                    "execution_time": 554,
                    "name": "hw_impl_t0_2"
                },
                {
                    "bram_requirement": 9585,
                    "clb_requirement": 9585,
                    "dsp_requirement": 9585,
                    "execution_time": 518,
                    "name": "hw_impl_t0_3"
                }
            ],
            "name": "t_0",
            "software_implementations": [
                {
                    "execution_time": 6531,
                    "name": "sw_impl_t0_0"
                }
            ]
        },
        {
            "hardware_implementations": [
                {
                    "bram_requirement": 290,
                    "clb_requirement": 290,
                    "dsp_requirement": 290,
                    "execution_time": 964,
                    "name": "hw_impl_t1_0"
                },
                {
                    "bram_requirement": 8721,
                    "clb_requirement": 8721,
                    "dsp_requirement": 8721,
                    "execution_time": 542,
                    "name": "hw_impl_t1_1"
                },
                {
                    "bram_requirement": 9624,
                    "clb_requirement": 9624,
                    "dsp_requirement": 9624,
                    "execution_time": 531,
                    "name": "hw_impl_t1_2"
                },
                {
                    "bram_requirement": 9633,
                    "clb_requirement": 9633,
                    "dsp_requirement": 9633,
                    "execution_time": 504,
                    "name": "hw_impl_t1_3"
                }
            ],
            "name": "t_1",
            "software_implementations": [
                {
                    "execution_time": 6826,
                    "name": "sw_impl_t1_0"
                }
            ]
        },
        {
            "hardware_implementations": [
                {
                    "bram_requirement": 1515,
                    "clb_requirement": 1515,
                    "dsp_requirement": 1515,
                    "execution_time": 4253,
                    "name": "hw_impl_t2_0"
                },
                {
                    "bram_requirement": 3211,
                    "clb_requirement": 3211,
                    "dsp_requirement": 3211,
                    "execution_time": 2175,
                    "name": "hw_impl_t2_1"
                },
                {
                    "bram_requirement": 8516,
                    "clb_requirement": 8516,
                    "dsp_requirement": 8516,
                    "execution_time": 1417,
                    "name": "hw_impl_t2_2"
                },
                {
                    "bram_requirement": 8983,
                    "clb_requirement": 8983,
                    "dsp_requirement": 8983,
                    "execution_time": 560,
                    "name": "hw_impl_t2_3"
                },
                {
                    "bram_requirement": 9087,
                    "clb_requirement": 9087,
                    "dsp_requirement": 9087,
                    "execution_time": 526,
                    "name": "hw_impl_t2_4"
                },
                {
                    "bram_requirement": 9249,
                    "clb_requirement": 9249,
                    "dsp_requirement": 9249,
                    "execution_time": 501,
                    "name": "hw_impl_t2_5"
                },
                {
                    "bram_requirement": 9848,
                    "clb_requirement": 9848,
                    "dsp_requirement": 9848,
                    "execution_time": 501,
                    "name": "hw_impl_t2_6"
                },
                {
                    "bram_requirement": 9876,
                    "clb_requirement": 9876,
                    "dsp_requirement": 9876,
                    "execution_time": 500,
                    "name": "hw_impl_t2_7"
                },
                {
                    "bram_requirement": 9965,
                    "clb_requirement": 9965,
                    "dsp_requirement": 9965,
                    "execution_time": 500,
                    "name": "hw_impl_t2_8"
                }
            ],
            "name": "t_2",
            "software_implementations": [
                {
                    "execution_time": 9015,
                    "name": "sw_impl_t2_0"
                }
            ]
        },
        {
            "hardware_implementations": [
                {
                    "bram_requirement": 2975,
                    "clb_requirement": 2975,
                    "dsp_requirement": 2975,
                    "execution_time": 4047,
                    "name": "hw_impl_t3_0"
                },
                {
                    "bram_requirement": 7421,
                    "clb_requirement": 7421,
                    "dsp_requirement": 7421,
                    "execution_time": 3852,
                    "name": "hw_impl_t3_1"
                },
                {
                    "bram_requirement": 9842,
                    "clb_requirement": 9842,
                    "dsp_requirement": 9842,
                    "execution_time": 1363,
                    "name": "hw_impl_t3_2"
                },
                {
                    "bram_requirement": 9886,
                    "clb_requirement": 9886,
                    "dsp_requirement": 9886,
                    "execution_time": 987,
                    "name": "hw_impl_t3_3"
                },
                {
                    "bram_requirement": 9991,
                    "clb_requirement": 9991,
                    "dsp_requirement": 9991,
                    "execution_time": 674,
                    "name": "hw_impl_t3_4"
                },
                {
                    "bram_requirement": 9991,
                    "clb_requirement": 9991,
                    "dsp_requirement": 9991,
                    "execution_time": 544,
                    "name": "hw_impl_t3_5"
                },
                {
                    "bram_requirement": 10000,
                    "clb_requirement": 10000,
                    "dsp_requirement": 10000,
                    "execution_time": 544,
                    "name": "hw_impl_t3_6"
                },
                {
                    "bram_requirement": 10000,
                    "clb_requirement": 10000,
                    "dsp_requirement": 10000,
                    "execution_time": 507,
                    "name": "hw_impl_t3_7"
                },
                {
                    "bram_requirement": 10000,
                    "clb_requirement": 10000,
                    "dsp_requirement": 10000,
                    "execution_time": 504,
                    "name": "hw_impl_t3_8"
                },
                {
                    "bram_requirement": 10000,
                    "clb_requirement": 10000,
                    "dsp_requirement": 10000,
                    "execution_time": 501,
                    "name": "hw_impl_t3_9"
                }
            ],
            "name": "t_3",
            "software_implementations": [
                {
                    "execution_time": 8697,
                    "name": "sw_impl_t3_0"
                }
            ]
        },
        {
            "hardware_implementations": [
                {
                    "bram_requirement": 161,
                    "clb_requirement": 161,
                    "dsp_requirement": 161,
                    "execution_time": 4646,
                    "name": "hw_impl_t4_0"
                },
                {
                    "bram_requirement": 5148,
                    "clb_requirement": 5148,
                    "dsp_requirement": 5148,
                    "execution_time": 2326,
                    "name": "hw_impl_t4_1"
                },
                {
                    "bram_requirement": 9870,
                    "clb_requirement": 9870,
                    "dsp_requirement": 9870,
                    "execution_time": 634,
                    "name": "hw_impl_t4_2"
                },
                {
                    "bram_requirement": 9946,
                    "clb_requirement": 9946,
                    "dsp_requirement": 9946,
                    "execution_time": 526,
                    "name": "hw_impl_t4_3"
                }
            ],
            "name": "t_4",
            "software_implementations": [
                {
                    "execution_time": 9437,
                    "name": "sw_impl_t4_0"
                }
            ]
        }
    ]
}
